Create an mbnma.network object — plot.mbnma.network • MBNMAdose
…
# Using the triptans headache dataset
print(triptans)
#> # A tibble: 182 × 6
#>    studyID AuthorYear              n     r  dose agent       
#>      <dbl> <fct>               <int> <dbl> <dbl> <fct>       
#>  1       1 Tfelt-Hansen P 2006    22     6     0 placebo     
#>  2       1 Tfelt-Hansen P 2006    30    14     1 sumatriptan 
#>  3       2 Goadsby PJ 2007       467   213     1 almotriptan 
#>  4       2 Goadsby PJ 2007       472   229     1 zolmitriptan
#>  5       3 Tuchman M2006         160    15     0 placebo     
#>  6       3 Tuchman M2006         174    48     1 zolmitriptan
#>  7       4 Cady G 2006           177    55     0 placebo     
#>  8       4 Cady G 2006           351   200     1 rizatriptan 
#>  9       5 Cady G 2006           167    52     0 placebo     
#> 10       5 Cady G 2006           331   195     1 rizatriptan 
#> # ℹ 172 more rows
…
